Relational data
…
There are various ways we might want to work across levels

- *Mutating joins*, where you make a new variable constructed form matched observations in the other.  E.g., how many tweets for each mayor
- *Filtering joins*, where you filter cases based on whether they match across.  E.g., filter to mayors who have tweets.
- *Combining* the datasets in various ways to construct new databases with rows and columns that meet desired specifications.  E.g., Tweets of all moyors from Indiana.

---

```r
mayors
```

```
## # A tibble: 1,473 x 51
##       X1 MayorID FullName LastName FirstName GenderMale GenderFemale RaceWhite
##    <dbl>   <dbl> <chr>    <chr>    <chr>          <dbl>        <dbl>     <dbl>
##  1     1       1 Marty H… Handlon  Marty              0            1         1
##  2     2       2 Bill Ha… Ham Jr.  Bill               1            0         1
##  3     3       3 Randall… Woodfin  Randall            1            0         0
##  4     4       4 Tab Bow… Bowling  Tab                1            0         1
##  5     5       5 Mark Sa… Saliba   Mark               1            0         1
##  6     6       6 Steve H… Holt     Steve              1            0         1
##  7     7       7 Sherman… Guyton   Sherman            1            0         1
##  8     8       8 Frank V… Brocato  Frank V.           1            0         1
##  9     9       9 Tommy B… Battle   Tommy              1            0         1
## 10    10      10 Paul Fi… Finley   Paul               1            0         1
## # … with 1,463 more rows, and 43 more variables: RaceBlack <dbl>,
## #   RaceHispanic <dbl>, RaceOther <dbl>, PartyRepublican <dbl>,
## #   PartyDemocrat <dbl>, PartyNonPartisan <dbl>, PartyOther <dbl>,
## #   Ideology <dbl>, IdeologySD <dbl>, LastElectionDate <chr>,
## #   PercentVote <dbl>, YearsCurrentPosition <dbl>, CityManager <dbl>,
## #   CouncilManager <dbl>, MayorCouncil <dbl>, Title <chr>, CityID <dbl>,
## #   CityName <chr>, CityNameFull <chr>, CensusID <chr>, CensusID2 <dbl>,
## #   State <chr>, StateAB <chr>, Region <dbl>, Division <dbl>, StateFIPS <dbl>,
## #   Population <dbl>, Latitude <dbl>, Longitude <dbl>, CityAge <dbl>,
## #   CityMale <dbl>, CityFemale <dbl>, CityWhite <dbl>, CityBlack <dbl>,
## #   CityHispanic <dbl>, CityOwner <dbl>, CityRenter <dbl>, GovWebsite <chr>,
## #   FacebookPageName <chr>, FacebookPageID <dbl>, FacebookLink <chr>,
## #   TwitterHandle <chr>, TwitterLink <chr>
```

---

```r
tweets
```

```
## # A tibble: 604,818 x 17
##       X1 TweetID ScreenName Text  CreatedTime         Favorited FavoritesCount
##    <dbl>   <dbl> <chr>      <chr> <dttm>                  <dbl>          <dbl>
##  1     1 9.90e17 a_silberb… "Man… 2018-04-28 22:26:48         0              9
##  2     2 9.90e17 a_silberb… "Suc… 2018-04-28 22:13:38         0              8
##  3     3 9.90e17 a_silberb… "Won… 2018-04-28 19:42:14         0             11
##  4     4 9.90e17 a_silberb… "I e… 2018-04-28 14:42:20         0              8
##  5     5 9.90e17 a_silberb… "At … 2018-04-28 13:58:39         0              7
##  6     6 9.90e17 a_silberb… "Won… 2018-04-28 13:53:21         0              6
##  7     7 9.90e17 a_silberb… "RT … 2018-04-28 12:26:17         0              0
##  8     8 9.90e17 a_silberb… "My … 2018-04-27 16:31:34         0              4
##  9     9 9.90e17 a_silberb… "At … 2018-04-27 16:31:23         0              6
## 10    10 9.90e17 a_silberb… "I e… 2018-04-27 03:19:42         0              6
## # … with 604,808 more rows, and 10 more variables: IsRetweet <dbl>,
## #   RetweetCount <dbl>, Retweeted <dbl>, ReplyToSN <chr>, ReplyToSID <dbl>,
## #   ReplyToUID <dbl>, Truncated <dbl>, StatusSource <chr>, Longitude <dbl>,
## #   Latitude <dbl>
```
…
```r
tweets <- rename(tweets, TwitterHandle=ScreenName)
```

---

```r
tweets
```

```
## # A tibble: 604,818 x 17
##       X1 TweetID TwitterHandle Text  CreatedTime         Favorited
##    <dbl>   <dbl> <chr>         <chr> <dttm>                  <dbl>
##  1     1 9.90e17 a_silberberg  "Man… 2018-04-28 22:26:48         0
##  2     2 9.90e17 a_silberberg  "Suc… 2018-04-28 22:13:38         0
##  3     3 9.90e17 a_silberberg  "Won… 2018-04-28 19:42:14         0
##  4     4 9.90e17 a_silberberg  "I e… 2018-04-28 14:42:20         0
##  5     5 9.90e17 a_silberberg  "At … 2018-04-28 13:58:39         0
##  6     6 9.90e17 a_silberberg  "Won… 2018-04-28 13:53:21         0
##  7     7 9.90e17 a_silberberg  "RT … 2018-04-28 12:26:17         0
##  8     8 9.90e17 a_silberberg  "My … 2018-04-27 16:31:34         0
##  9     9 9.90e17 a_silberberg  "At … 2018-04-27 16:31:23         0
## 10    10 9.90e17 a_silberberg  "I e… 2018-04-27 03:19:42         0
## # … with 604,808 more rows, and 11 more variables: FavoritesCount <dbl>,
## #   IsRetweet <dbl>, RetweetCount <dbl>, Retweeted <dbl>, ReplyToSN <chr>,
## #   ReplyToSID <dbl>, ReplyToUID <dbl>, Truncated <dbl>, StatusSource <chr>,
## #   Longitude <dbl>, Latitude <dbl>
```
…
---

## Mutating join

- A mutating join adds variables to the right on your datset

```r
tweets %>% 
  left_join(select(mayors, TwitterHandle, LastName), 
            by="TwitterHandle")
```

```
## # A tibble: 608,006 x 18
##       X1 TweetID TwitterHandle Text  CreatedTime         Favorited
##    <dbl>   <dbl> <chr>         <chr> <dttm>                  <dbl>
##  1     1 9.90e17 a_silberberg  "Man… 2018-04-28 22:26:48         0
##  2     2 9.90e17 a_silberberg  "Suc… 2018-04-28 22:13:38         0
##  3     3 9.90e17 a_silberberg  "Won… 2018-04-28 19:42:14         0
##  4     4 9.90e17 a_silberberg  "I e… 2018-04-28 14:42:20         0
##  5     5 9.90e17 a_silberberg  "At … 2018-04-28 13:58:39         0
##  6     6 9.90e17 a_silberberg  "Won… 2018-04-28 13:53:21         0
##  7     7 9.90e17 a_silberberg  "RT … 2018-04-28 12:26:17         0
##  8     8 9.90e17 a_silberberg  "My … 2018-04-27 16:31:34         0
##  9     9 9.90e17 a_silberberg  "At … 2018-04-27 16:31:23         0
## 10    10 9.90e17 a_silberberg  "I e… 2018-04-27 03:19:42         0
## # … with 607,996 more rows, and 12 more variables: FavoritesCount <dbl>,
## #   IsRetweet <dbl>, RetweetCount <dbl>, Retweeted <dbl>, ReplyToSN <chr>,
## #   ReplyToSID <dbl>, ReplyToUID <dbl>, Truncated <dbl>, StatusSource <chr>,
## #   Longitude <dbl>, Latitude <dbl>, LastName <chr>
```
…
